…
    ## Modeling maximum size-density curve(s)...
    ## Compiling model graph
    ##    Resolving undeclared variables
    ##    Allocating nodes
    ## Graph information:
    ##    Observed stochastic nodes: 1242
    ##    Unobserved stochastic nodes: 1289
    ##    Total graph size: 13774
    ## 
    ## Initializing model

    ## # A tibble: 2,661 x 15
    ##     YEAR  PLT_CN PREV_PLT_CN PLOT_STATUS_CD PLOT_STATUS pltID REMPER      FSI
    ##    <int>   <dbl>       <dbl>          <int> <chr>       <chr>  <dbl>    <dbl>
    ##  1  2012 4.04e13     3.66e12              1 Forest      1_8_~   10.1  2.08e-4
    ##  2  2012 4.04e13     3.66e12              1 Forest      1_8_~    9.9  6.29e-4
    ##  3  2012 4.04e13     3.66e12              1 Forest      1_8_~   10.1  5.62e-3
    ##  4  2012 4.04e13     3.64e12              1 Forest      1_8_~    9.8 -1.43e-3
    ##  5  2012 4.04e13     3.64e12              1 Forest      1_8_~    9.8  1.44e-2
    ##  6  2012 4.04e13     3.64e12              1 Forest      1_8_~   10    1.54e-3
    ##  7  2012 4.04e13     3.64e12              1 Forest      1_8_~   10    4.02e-4
    ##  8  2012 4.04e13     3.64e12              1 Forest      1_8_~    9.9  3.64e-3
    ##  9  2012 4.04e13     3.64e12              1 Forest      1_8_~   10    9.01e-3
    ## 10  2012 4.04e13     3.65e12              1 Forest      1_8_~    9.5 -4.74e-3
    ## # ... with 2,651 more rows, and 7 more variables: PERC_FSI <dbl>,
    ## #   PREV_RD <dbl>, CURR_RD <dbl>, PREV_TPA <dbl>, CURR_TPA <dbl>,
    ## #   PREV_BAA <dbl>, CURR_BAA <dbl>
…
    ## Modeling maximum size-density curve(s)...
    ## Compiling model graph
    ##    Resolving undeclared variables
    ##    Allocating nodes
    ## Graph information:
    ##    Observed stochastic nodes: 1242
    ##    Unobserved stochastic nodes: 1289
    ##    Total graph size: 13774
    ## 
    ## Initializing model

    ## # A tibble: 158 x 23
    ##     YEAR  SPCD COMMON_NAME SCIENTIFIC_NAME      FSI PERC_FSI FSI_STATUS FSI_INT
    ##    <int> <int> <chr>       <chr>              <dbl>    <dbl> <chr>        <dbl>
    ##  1  2012    15 white fir   Abies concolor   6.69e-4   0.678  Expand     2.38e-4
    ##  2  2012    18 corkbark f~ Abies lasiocar~  1.05e-3   1.90   Expand     5.21e-4
    ##  3  2012    19 subalpine ~ Abies lasiocar~ -9.76e-4  -0.675  Decline    1.14e-4
    ##  4  2012    65 Utah junip~ Juniperus oste~  2.74e-3   1.18   Expand     1.81e-4
    ##  5  2012    66 Rocky Moun~ Juniperus scop~ -9.79e-3  -6.69   Decline    3.80e-4
    ##  6  2012    69 oneseed ju~ Juniperus mono~  1.48e-2   8.43   Expand     1.49e-3
    ##  7  2012    93 Engelmann ~ Picea engelman~  1.86e-4   0.0866 Expand     9.52e-5
    ##  8  2012    96 blue spruce Picea pungens    4.10e-3   3.11   Expand     3.37e-4
    ##  9  2012   102 Rocky Moun~ Pinus aristata   4.37e-4   0.487  Expand     7.25e-5
    ## 10  2012   106 common or ~ Pinus edulis    -8.47e-4  -0.827  Decline    3.17e-5
    ## # ... with 148 more rows, and 15 more variables: PERC_FSI_INT <dbl>,
    ## #   PREV_RD <dbl>, CURR_RD <dbl>, TPA_RATE <dbl>, BA_RATE <dbl>, REMPER <dbl>,
    ## #   FSI_VAR <dbl>, PERC_FSI_VAR <dbl>, PREV_RD_VAR <dbl>, CURR_RD_VAR <dbl>,
    ## #   TPA_RATE_VAR <dbl>, BA_RATE_VAR <dbl>, REMPER_VAR <dbl>, nPlots <dbl>,
    ## #   N <int>
…
    ## Modeling maximum size-density curve(s)...
    ## Compiling model graph
    ##    Resolving undeclared variables
    ##    Allocating nodes
    ## Graph information:
    ##    Observed stochastic nodes: 1242
    ##    Unobserved stochastic nodes: 1289
    ##    Total graph size: 13774
    ## 
    ## Initializing model

    ## # A tibble: 70 x 21
    ##     YEAR OWNCD       FSI PERC_FSI FSI_STATUS   FSI_INT PERC_FSI_INT PREV_RD
    ##    <int> <int>     <dbl>    <dbl> <chr>          <dbl>        <dbl>   <dbl>
    ##  1  2012    11  -3.18e-3   -1.03  Decline      5.88e-5       0.0176   0.307
    ##  2  2012    12 NaN        NaN     Stable     NaN           NaN      NaN    
    ##  3  2012    21   1.59e-3    0.377 Expand       3.76e-4       0.0965   0.421
    ##  4  2012    22  -5.08e-4   -0.229 Decline      3.64e-5       0.0157   0.221
    ##  5  2012    23 NaN        NaN     Stable     NaN           NaN      NaN    
    ##  6  2012    24  -1.48e-3   -0.670 Decline      2.38e-4       0.0937   0.222
    ##  7  2012    25 NaN        NaN     Stable     NaN           NaN      NaN    
    ##  8  2012    31  -8.67e-4   -0.302 Decline      1.24e-4       0.0410   0.287
    ##  9  2012    32   6.28e-3    5.93  Expand       8.82e-4       0.818    0.106
    ## 10  2012    46  -1.25e-3   -0.581 Decline      4.33e-5       0.0188   0.215
    ## # ... with 60 more rows, and 13 more variables: CURR_RD <dbl>, TPA_RATE <dbl>,
    ## #   BA_RATE <dbl>, REMPER <dbl>, FSI_VAR <dbl>, PERC_FSI_VAR <dbl>,
    ## #   PREV_RD_VAR <dbl>, CURR_RD_VAR <dbl>, TPA_RATE_VAR <dbl>,
    ## #   BA_RATE_VAR <dbl>, REMPER_VAR <dbl>, nPlots <dbl>, N <int>
…
